…
<img src="titration_example_files/figure-html/unnamed-chunk-7-1.png" width="672" />

Conclusion - starting dose too high, and algorithm not aggressive enough to titrate
down.


```r
distinct_doses <- out %>% distinct(ID, F_GUT, .keep_all = TRUE) %>% select(ID, time, F_GUT)
head(distinct_doses, n = 10)
#> # A tibble: 10 x 3
#>      ID  time F_GUT
#>   <dbl> <dbl> <dbl>
#> 1     1     0  15.0
#> 2     1    48  12.5
#> 3     2     0  15.0
#> 4     2    48  12.5
#> 5     2    96  10.0
#> 6     2   144   7.5
#> # ... with 4 more rows
```


```r
# time at which stabilized (final dose first seen)
distinct_doses %>% arrange(ID, desc(time)) %>%
  distinct(ID, .keep_all = T)
#> # A tibble: 9 x 3
#>      ID  time F_GUT
#>   <dbl> <dbl> <dbl>
#> 1     1    48  12.5
#> 2     2   144   7.5
#> 3     3   192   5.0
#> 4     4   192   5.0
#> 5     5   144   7.5
#> 6     6   144   7.5
#> # ... with 3 more rows
```
